Toy Story (1995)
GoldenEye (1995)
Four Rooms (1995)
Get Shorty (1995)
Copycat (1995)
Shanghai Triad (Yao a yao yao dao waipo qiao) (1995)
Twelve Monkeys (1995)
Babe (1995)
Dead Man Walking (1995)
Richard III (1995)
Seven (Se7en) (1995)
The Usual Suspects (1995)
Mighty Aphrodite (1995)
Il Postino (1994)
Mr. Holland's Opus (1995)
French Twist (Gazon maudit) (1995)
From Dusk Till Dawn (1996)
The White Balloon (1995)
Antonia's Line (1995)
Angels and Insects (1995)
Muppet Treasure Island (1996)
Braveheart (1995)
Taxi Driver (1976)
Rumble in the Bronx (1995)
The Birdcage (1996)
The Brothers McMullen (1995)
Bad Boys (1995)
Apollo 13 (1995)
Batman Forever (1995)
Belle de jour (1967)
Crimson Tide (1995)
Crumb (1994)
Desperado (1995)
The Doom Generation (1995)
Free Willy 2: The Adventure Home (1995)
Mad Love (1995)
Nadja (1994)
The Net (1995)
Strange Days (1995)
To Wong Foo, Thanks for Everything! Julie Newmar (1995)
Billy Madison (1995)
Clerks (1994)
Disclosure (1994)
Dolores Claiborne (1994)
Eat Drink Man Woman (1994)
Exotica (1994)
Ed Wood (1994)
Hoop Dreams (1994)
I.Q. (1994)
Star Wars (1977)
Legends of the Fall (1994)
The Madness of King George (1994)
Natural Born Killers (1994)
Outbreak (1995)
The Professional (1994)
Pulp Fiction (1994)
Priest (1994)
Quiz Show (1994)
Three Colors: Red (1994)
Three Colors: Blue (1993)
Three Colors: White (1994)
Stargate (1994)
The Santa Clause (1994)
The Shawshank Redemption (1994)
What's Eating Gilbert Grape (1993)
While You Were Sleeping (1995)
Ace Ventura: Pet Detective (1994)
The Crow (1994)
Forrest Gump (1994)
Four Weddings and a Funeral (1994)
The Lion King (1994)
The Mask (1994)
Maverick (1994)
Faster Pussycat! Kill! Kill! (1965)
Brother Minister: The Assassination of Malcolm X (1994)
Carlito's Way (1993)
The Firm (1993)
Free Willy (1993)
The Fugitive (1993)
Hot Shots! Part Deux (1993)
The Hudsucker Proxy (1994)
Jurassic Park (1993)
Much Ado About Nothing (1993)
Robert A. Heinlein's The Puppet Masters (1994)
The Ref (1994)
The Remains of the Day (1993)
Searching for Bobby Fischer (1993)
Sleepless in Seattle (1993)
Blade Runner (1982)
So I Married an Axe Murderer (1993)
The Nightmare Before Christmas (1993)
True Romance (1993)
Welcome to the Dollhouse (1995)
Home Alone (1990)
Aladdin (1992)
Terminator 2: Judgment Day (1991)
Dances with Wolves (1990)
The Silence of the Lambs (1991)
Snow White and the Seven Dwarfs (1937)
Fargo (1996)
Heavy Metal (1981)
The Aristocats (1970)
All Dogs Go to Heaven 2 (1996)
Theodore Rex (1995)
Sgt. Bilko (1996)
Diabolique (1996)
Moll Flanders (1996)
Kids in the Hall: Brain Candy (1996)
Mystery Science Theater 3000: The Movie (1996)
Operation Dumbo Drop (1995)
The Truth About Cats & Dogs (1996)
Flipper (1996)
The Horseman on the Roof (Le Hussard sur le toit) (1995)
Wallace & Gromit: The Best of Aardman Animation (1996)
The Haunted World of Edward D. Wood Jr. (1995)
Cold Comfort Farm (1995)
The Rock (1996)
Twister (1996)
Maya Lin: A Strong Clear Vision (1994)
Striptease (1996)
Independence Day (ID4) (1996)
The Cable Guy (1996)
The Frighteners (1996)
Lone Star (1996)
Phenomenon (1996)
The Spitfire Grill (1996)
The Godfather (1972)
Supercop (1992)
Bound (1996)
Kansas City (1996)
Breakfast at Tiffany's (1961)
The Wizard of Oz (1939)
Gone with the Wind (1939)
Citizen Kane (1941)
2001: A Space Odyssey (1968)
Mr. Smith Goes to Washington (1939)
Big Night (1996)
D3: The Mighty Ducks (1996)
The Love Bug (1969)
Homeward Bound: The Incredible Journey (1993)
20,000 Leagues Under the Sea (1954)
Bedknobs and Broomsticks (1971)
The Sound of Music (1965)
Die Hard (1988)
The Lawnmower Man (1992)
Unhook the Stars (1996)
The Long Kiss Goodnight (1996)
The Ghost and the Darkness (1996)
Jude (1996)
Swingers (1996)
Willy Wonka and the Chocolate Factory (1971)
Sleeper (1973)
A Fish Called Wanda (1988)
Monty Python's Life of Brian (1979)
Dirty Dancing (1987)
Reservoir Dogs (1992)
Platoon (1986)
Weekend at Bernie's (1989)
Basic Instinct (1992)
Glengarry Glen Ross (1992)
Top Gun (1986)
On Golden Pond (1981)
The Return of the Pink Panther (1974)
The Abyss (1989)
Jean de Florette (1986)
Manon of the Spring (Manon des sources) (1986)
Private Benjamin (1980)
Monty Python and the Holy Grail (1974)
The Wrong Trousers (1993)
Cinema Paradiso (1988)
Delicatessen (1991)
The Empire Strikes Back (1980)
The Princess Bride (1987)
Raiders of the Lost Ark (1981)
Brazil (1985)
Aliens (1986)
The Good, The Bad and The Ugly (1966)
12 Angry Men (1957)
A Clockwork Orange (1971)
Apocalypse Now (1979)
Return of the Jedi (1983)
GoodFellas (1990)
Alien (1979)
Army of Darkness (1993)
Psycho (1960)
The Blues Brothers (1980)
The Godfather: Part II (1974)
Full Metal Jacket (1987)
A Grand Day Out (1992)
Henry V (1989)
Amadeus (1984)
Raging Bull (1980)
The Right Stuff (1983)
The Sting (1973)
The Terminator (1984)
Dead Poets Society (1989)
The Graduate (1967)
Nikita (La Femme Nikita) (1990)
The Bridge on the River Kwai (1957)
The Shining (1980)
Evil Dead II (1987)
Groundhog Day (1993)
Unforgiven (1992)
Back to the Future (1985)
Patton (1970)
Akira (1988)
Cyrano de Bergerac (1990)
Young Frankenstein (1974)
This Is Spinal Tap (1984)
Indiana Jones and the Last Crusade (1989)
M*A*S*H (1970)
The Unbearable Lightness of Being (1988)
A Room with a View (1986)
Pink Floyd - The Wall (1982)
Field of Dreams (1989)
When Harry Met Sally... (1989)
Bram Stoker's Dracula (1992)
Cape Fear (1991)
A Nightmare on Elm Street (1984)
The Mirror Has Two Faces (1996)
Breaking the Waves (1996)
Star Trek: First Contact (1996)
Sling Blade (1996)
Ridicule (1996)
101 Dalmatians (1996)
Die Hard 2 (1990)
Star Trek VI: The Undiscovered Country (1991)
Star Trek: The Wrath of Khan (1982)
Star Trek III: The Search for Spock (1984)
Star Trek IV: The Voyage Home (1986)
Batman Returns (1992)
Young Guns (1988)
Under Siege (1992)
Jaws (1975)
Mars Attacks! (1996)
Citizen Ruth (1996)
Jerry Maguire (1996)
Raising Arizona (1987)
Sneakers (1992)
Beavis and Butt-head Do America (1996)
The Last of the Mohicans (1992)
Kolya (1996)
Jungle2Jungle (1997)
Smilla's Sense of Snow (1997)
The Devil's Own (1997)
Chasing Amy (1997)
Turbo: A Power Rangers Movie (1997)
Grosse Pointe Blank (1997)
Austin Powers: International Man of Mystery (1997)
The Fifth Element (1997)
Shall We Dance? (1996)
The Lost World: Jurassic Park (1997)
The Pillow Book (1995)
Batman & Robin (1997)
My Best Friend's Wedding (1997)
When the Cats Away (Chacun cherche son chat) (1996)
Men in Black (1997)
Contact (1997)
George of the Jungle (1997)
Event Horizon (1997)
Air Bud (1997)
In the Company of Men (1997)
Steel (1997)
Mimic (1997)
The Hunt for Red October (1990)
Kull the Conqueror (1997)
unknown
Chasing Amy (1997)
The Full Monty (1997)
Gattaca (1997)
Starship Troopers (1997)
Good Will Hunting (1997)
Heat (1995)
Sabrina (1995)
Sense and Sensibility (1995)
Leaving Las Vegas (1995)
Restoration (1995)
Bed of Roses (1996)
Once Upon a Time... When We Were Colored (1995)
Up Close and Personal (1996)
The River Wild (1994)
A Time to Kill (1996)
Emma (1996)
Tin Cup (1996)
Secrets & Lies (1996)
The English Patient (1996)
Marvin's Room (1996)
Scream (1996)
Evita (1996)
Fierce Creatures (1997)
Absolute Power (1997)
Rosewood (1997)
Donnie Brasco (1997)
Liar Liar (1997)
Breakdown (1997)
La Promesse (1996)
Ulee's Gold (1997)
Face/Off (1997)
Hoodlum (1997)
Air Force One (1997)
In & Out (1997)
L.A. Confidential (1997)
Ulee's Gold (1997)
Fly Away Home (1996)
The Ice Storm (1997)
Mrs. Brown (Her Majesty, Mrs. Brown) (1997)
The Devil's Advocate (1997)
FairyTale: A True Story (1997)
Deceiver (1997)
The Rainmaker (1997)
The Wings of the Dove (1997)
Midnight in the Garden of Good and Evil (1997)
Titanic (1997)
3 Ninjas: High Noon At Mega Mountain (1998)
Apt Pupil (1998)
As Good As It Gets (1997)
In the Name of the Father (1993)
Schindler's List (1993)
Everyone Says I Love You (1996)
Paradise Lost: The Child Murders at Robin Hood Hills (1996)
Mother (1996)
Murder at 1600 (1997)
Dante's Peak (1997)
Lost Highway (1997)
Crash (1996)
G.I. Jane (1997)
Cop Land (1997)
Conspiracy Theory (1997)
Desperate Measures (1998)
187 (1997)
The Edge (1997)
Kiss the Girls (1997)
The Game (1997)
U Turn (1997)
How to Be a Player (1997)
Playing God (1997)
The House of Yes (1997)
Bean (1997)
Mad City (1997)
Boogie Nights (1997)
Critical Care (1997)
The Man Who Knew Too Little (1997)
Alien: Resurrection (1997)
The Apostle (1997)
Deconstructing Harry (1997)
Jackie Brown (1997)
Wag the Dog (1997)
Desperate Measures (1998)
Hard Rain (1998)
Fallen (1998)
The Prophecy II (1998)
Spice World (1997)
Deep Rising (1998)
The Wedding Singer (1998)
Sphere (1998)
The Client (1994)
One Flew Over the Cuckoo's Nest (1975)
Spawn (1997)
The Assignment (1997)
Wonderland (1997)
Incognito (1997)
Blues Brothers 2000 (1998)
Sudden Death (1995)
Ace Ventura: When Nature Calls (1995)
Powder (1995)
Dangerous Minds (1995)
Clueless (1995)
Bio-Dome (1996)
Black Sheep (1996)
Mary Reilly (1996)
The Bridges of Madison County (1995)
Jeffrey (1995)
Judge Dredd (1995)
Mighty Morphin Power Rangers: The Movie (1995)
Showgirls (1995)
Houseguest (1994)
Heavyweights (1994)
Miracle on 34th Street (1994)
Tales From the Crypt Presents: Demon Knight (1995)
Star Trek: Generations (1994)
Muriel's Wedding (1994)
The Adventures of Priscilla, Queen of the Desert (1994)
The Flintstones (1994)
Naked Gun 33 1/3: The Final Insult (1994)
True Lies (1994)
Addams Family Values (1993)
The Age of Innocence (1993)
Beverly Hills Cop III (1994)
Black Beauty (1994)
Fear of a Black Hat (1993)
Last Action Hero (1993)
The Man Without a Face (1993)
Mrs. Doubtfire (1993)
Radioland Murders (1994)
Robin Hood: Men in Tights (1993)
Serial Mom (1994)
Striking Distance (1993)
Super Mario Bros. (1993)
The Three Musketeers (1993)
The Little Rascals (1994)
The Brady Bunch Movie (1995)
Ghost (1990)
Batman (1989)
Pinocchio (1940)
Mission: Impossible (1996)
Thinner (1996)
Spy Hard (1996)
A Close Shave (1995)
Jack (1996)
Kingpin (1996)
The Nutty Professor (1996)
A Very Brady Sequel (1996)
Tales from the Crypt Presents: Bordello of Blood (1996)
My Favorite Year (1982)
The Apple Dumpling Gang (1975)
Old Yeller (1957)
The Parent Trap (1961)
Cinderella (1950)
Mary Poppins (1964)
Alice in Wonderland (1951)
William Shakespeare's Romeo and Juliet (1996)
Aladdin and the King of Thieves (1996)
E.T. the Extra-Terrestrial (1982)
Children of the Corn: The Gathering (1996)
Bob Roberts (1992)
The Transformers: The Movie (1986)
To Kill a Mockingbird (1962)
Harold and Maude (1971)
The Day the Earth Stood Still (1951)
Duck Soup (1933)
Highlander (1986)
Fantasia (1940)
Heathers (1989)
Forbidden Planet (1956)
Butch Cassidy and the Sundance Kid (1969)
An American Werewolf in London (1981)
Amityville 1992: It's About Time (1992)
Amityville 3-D (1983)
Amityville: A New Generation (1993)
Amityville II: The Possession (1982)
The Amityville Horror (1979)
The Amityville Curse (1990)
The Birds (1963)
The Blob (1958)
The Body Snatcher (1945)
Burnt Offerings (1976)
Carrie (1976)
The Omen (1976)
Star Trek: The Motion Picture (1979)
Star Trek V: The Final Frontier (1989)
Grease (1978)
Jaws 2 (1978)
Jaws 3-D (1983)
Bastard Out of Carolina (1996)
Jackie Chan's First Strike (1996)
Beverly Hills Ninja (1997)
Free Willy 3: The Rescue (1997)
Nixon (1995)
Cry, the Beloved Country (1995)
The Crossing Guard (1995)
Smoke (1995)
Like Water For Chocolate (Como agua para chocolate) (1992)
The Secret of Roan Inish (1994)
Vanya on 42nd Street (1994)
The Jungle Book (1994)
Red Rock West (1992)
A Bronx Tale (1993)
Rudy (1993)
Short Cuts (1993)
Tombstone (1993)
Courage Under Fire (1996)
Dragonheart (1996)
James and the Giant Peach (1996)
Dr. Strangelove or: How I Learned to Stop Worrying and Love the Bomb (1963)
Trainspotting (1996)
The First Wives Club (1996)
Matilda (1996)
The Philadelphia Story (1940)
Vertigo (1958)
North by Northwest (1959)
The Apartment (1960)
Some Like It Hot (1959)
Casablanca (1942)
The Maltese Falcon (1941)
My Fair Lady (1964)
Sabrina (1954)
Roman Holiday (1953)
Sunset Blvd. (1950)
Notorious (1946)
To Catch a Thief (1955)
The Adventures of Robin Hood (1938)
East of Eden (1955)
The Thin Man (1934)
His Girl Friday (1940)
Around the World in 80 Days (1956)
It's a Wonderful Life (1946)
Bringing Up Baby (1938)
The African Queen (1951)
Cat on a Hot Tin Roof (1958)
Fly Away Home (1996)
Dumbo (1941)
Bananas (1971)
The Candidate (1972)
Bonnie and Clyde (1967)
Dial M for Murder (1954)
Rebel Without a Cause (1955)
A Streetcar Named Desire (1951)
The People vs. Larry Flynt (1996)
My Left Foot (1989)
The Magnificent Seven (1954)
Lawrence of Arabia (1962)
Wings of Desire (1987)
The Third Man (1949)
Annie Hall (1977)
Das Boot (1981)
Local Hero (1983)
Manhattan (1979)
Miller's Crossing (1990)
The Treasure of the Sierra Madre (1948)
The Great Escape (1963)
The Deer Hunter (1978)
Down by Law (1986)
Cool Hand Luke (1967)
The Great Dictator (1940)
The Big Sleep (1946)
Ben-Hur (1959)
Gandhi (1982)
The Killing Fields (1984)
My Life as a Dog (Mitt liv som hund) (1985)
The Man Who Would Be King (1975)
Shine (1996)
Kama Sutra: A Tale of Love (1996)
The Daytrippers (1996)
Traveller (1997)
Addicted to Love (1997)
Ponette (1996)
My Own Private Idaho (1991)
Anastasia (1997)
Mouse Hunt (1997)
Money Train (1995)
Mortal Kombat (1995)
Pocahontas (1995)
Les Misérables (1995)
Things to Do in Denver when You're Dead (1995)
Vampire in Brooklyn (1995)
Broken Arrow (1996)
The Young Poisoner's Handbook (1995)
The NeverEnding Story III (1994)
Rob Roy (1995)
Die Hard: With a Vengeance (1995)
Lord of Illusions (1995)
Species (1995)
A Walk in the Clouds (1995)
Waterworld (1995)
White Man's Burden (1995)
Wild Bill (1995)
Farinelli: il castrato (1994)
Heavenly Creatures (1994)
Interview with the Vampire (1994)
A Kid in King Arthur's Court (1995)
Mary Shelley's Frankenstein (1994)
The Quick and the Dead (1995)
Stephen King's The Langoliers (1995)
Tales from the Hood (1995)
Village of the Damned (1995)
Clear and Present Danger (1994)
Wes Craven's New Nightmare (1994)
Speed (1994)
Wolf (1994)
Wyatt Earp (1994)
Another Stakeout (1993)
Blown Away (1994)
Body Snatchers (1993)
Boxing Helena (1993)
City Slickers II: The Legend of Curly's Gold (1994)
Cliffhanger (1993)
Coneheads (1993)
Demolition Man (1993)
Fatal Instinct (1993)
The Englishman Who Went Up a Hill, But Came Down a Mountain (1995)
Kalifornia (1993)
The Piano (1993)
Romeo Is Bleeding (1993)
The Secret Garden (1993)
Son in Law (1993)
Terminal Velocity (1994)
The Hour of the Pig (1993)
Beauty and the Beast (1991)
The Wild Bunch (1969)
Hellraiser: Bloodline (1996)
Primal Fear (1996)
True Crime (1995)
Stalingrad (1993)
Heavy (1995)
The Fan (1996)
The Hunchback of Notre Dame (1996)
Eraser (1996)
The Big Squeeze (1996)
Police Story 4: Project S (Chao ji ji hua) (1993)
Daniel Defoe's Robinson Crusoe (1996)
For Whom the Bell Tolls (1943)
An American in Paris (1951)
Rear Window (1954)
It Happened One Night (1934)
Meet Me in St. Louis (1944)
All About Eve (1950)
Rebecca (1940)
Spellbound (1945)
Father of the Bride (1950)
Gigi (1958)
Laura (1944)
Lost Horizon (1937)
My Man Godfrey (1936)
Giant (1956)
The 39 Steps (1935)
Night of the Living Dead (1968)
The Blue Angel (Der Blaue Engel) (1930)
Picnic (1955)
Extreme Measures (1996)
The Chamber (1996)
Davy Crockett, King of the Wild Frontier (1955)
Swiss Family Robinson (1960)
Angels in the Outfield (1994)
The Three Caballeros (1945)
The Sword in the Stone (1963)
So Dear to My Heart (1949)
Robin Hood: Prince of Thieves (1991)
Sleepers (1996)
Victor/Victoria (1982)
The Great Race (1965)
The Crying Game (1992)
Sophie's Choice (1982)
A Christmas Carol (1938)
Microcosmos: Le peuple de l'herbe (1996)
The Fog (1980)
Escape from New York (1981)
The Howling (1981)
The Return of Martin Guerre (Le Retour de Martin Guerre) (1982)
The Tin Drum (Die Blechtrommel) (1979)
The Cook the Thief His Wife & Her Lover (1989)
Paths of Glory (1957)
The Grifters (1990)
The Innocent (1994)
The Thin Blue Line (1988)
Paris Is Burning (1990)
Once Upon a Time in the West (1969)
Ran (1985)
The Quiet Man (1952)
Once Upon a Time in America (1984)
The Seventh Seal (Det Sjunde inseglet) (1957)
Glory (1989)
Rosencrantz and Guildenstern Are Dead (1990)
Touch of Evil (1958)
Chinatown (1974)
Stand by Me (1986)
M (1931)
The Manchurian Candidate (1962)
Pump Up the Volume (1990)
Arsenic and Old Lace (1944)
Fried Green Tomatoes (1991)
High Noon (1952)
Somewhere in Time (1980)
Being There (1979)
Paris, Texas (1984)
Alien 3 (1992)
Blood For Dracula (Andy Warhol's Dracula) (1974)
Audrey Rose (1977)
Blood Beach (1981)
Body Parts (1991)
Body Snatchers (1993)
Bride of Frankenstein (1935)
Candyman (1992)
Cape Fear (1962)
Cat People (1982)
Nosferatu (Nosferatu, eine Symphonie des Grauens) (1922)
The Crucible (1996)
Fire on the Mountain (1996)
Volcano (1997)
Conan the Barbarian (1981)
Kull the Conqueror (1997)
Wishmaster (1997)
I Know What You Did Last Summer (1997)
Rocket Man (1997)
In the Line of Fire (1993)
Executive Decision (1996)
A Perfect World (1993)
McHale's Navy (1997)
Leave It to Beaver (1997)
The Jackal (1997)
Seven Years in Tibet (1997)
Dark City (1998)
The American President (1995)
Casino (1995)
Persuasion (1995)
Kicking and Screaming (1995)
City Hall (1996)
The Basketball Diaries (1995)
The Browning Version (1994)
Little Women (1994)
Miami Rhapsody (1995)
The Wonderful, Horrible Life of Leni Riefenstahl (1993)
Barcelona (1994)
Widows' Peak (1994)
The House of the Spirits (1993)
Singin' in the Rain (1952)
Bad Moon (1996)
Enchanted April (1991)
Sex, Lies, and Videotape (1989)
Strictly Ballroom (1992)
Better Off Dead... (1985)
The Substance of Fire (1996)
Tin Men (1987)
Othello (1995)
Carrington (1995)
To Die For (1995)
Home for the Holidays (1995)
The Juror (1996)
In the Bleak Midwinter (1995)
Canadian Bacon (1994)
First Knight (1995)
Mallrats (1995)
Nine Months (1995)
Boys on the Side (1995)
Circle of Friends (1995)
Exit to Eden (1994)
Fluke (1995)
Immortal Beloved (1994)
Junior (1994)
Nell (1994)
Queen Margot (La Reine Margot) (1994)
Corrina, Corrina (1994)
Dave (1993)
Go Fish (1994)
Made in America (1993)
Philadelphia (1993)
Shadowlands (1993)
Sirens (1994)
Threesome (1994)
Pretty Woman (1990)
Jane Eyre (1996)
The Last Supper (1995)
Ransom (1996)
The Crow: City of Angels (1996)
Michael Collins (1996)
The Ruling Class (1972)
Real Genius (1985)
Benny & Joon (1993)
The Saint (1997)
The MatchMaker (1997)
Amistad (1997)
Tomorrow Never Dies (1997)
The Replacement Killers (1998)
Burnt By the Sun (1994)
Red Corner (1997)
Jumanji (1995)
Father of the Bride Part II (1995)
Across the Sea of Time (1995)
Lawnmower Man 2: Beyond Cyberspace (1996)
Fair Game (1995)
Screamers (1995)
Nick of Time (1995)
Beautiful Girls (1996)
Happy Gilmore (1996)
If Lucy Fell (1996)
Boomerang (1992)
Man of the Year (1995)
The Addiction (1995)
Casper (1995)
Congo (1995)
Devil in a Blue Dress (1995)
Johnny Mnemonic (1995)
Kids (1995)
Mute Witness (1994)
The Prophecy (1995)
Something to Talk About (1995)
Three Wishes (1995)
Castle Freak (1995)
Don Juan DeMarco (1995)
Drop Zone (1994)
Dumb & Dumber (1994)
French Kiss (1995)
Little Odessa (1994)
Milk Money (1994)
Beyond Bedlam (1993)
Only You (1994)
The Perez Family (1995)
Roommates (1995)
Relative Fear (1994)
Swimming with Sharks (1995)
Tommy Boy (1995)
The Baby-Sitters Club (1995)
Bullets Over Broadway (1994)
Crooklyn (1994)
It Could Happen to You (1994)
Richie Rich (1994)
Speechless (1994)
Timecop (1994)
Bad Company (1995)
Boys Life (1995)
In the Mouth of Madness (1995)
The Air Up There (1994)
Hard Target (1993)
Heaven & Earth (1993)
Jimmy Hollywood (1994)
Manhattan Murder Mystery (1993)
Menace II Society (1993)
Poetic Justice (1993)
The Program (1993)
Rising Sun (1993)
The Shadow (1994)
Thirty-Two Short Films About Glenn Gould (1993)
Andre (1994)
The Celluloid Closet (1995)
A Great Day in Harlem (1994)
One Fine Day (1996)
Candyman: Farewell to the Flesh (1995)
Frisk (1995)
Girl 6 (1996)
Eddie (1996)
Space Jam (1996)
Mrs. Winterbourne (1996)
Faces (1968)
Mulholland Falls (1996)
The Great White Hype (1996)
The Arrival (1996)
The Phantom (1996)
Daylight (1996)
Alaska (1996)
Fled (1996)
Power 98 (1995)
Escape from L.A. (1996)
Bogus (1996)
Bulletproof (1996)
Halloween: The Curse of Michael Myers (1995)
The Gay Divorcee (1934)
Ninotchka (1939)
Meet John Doe (1941)
In the Line of Duty 2 (1987)
Loch Ness (1995)
Last Man Standing (1996)
The Glimmer Man (1996)
Pollyanna (1960)
The Shaggy Dog (1959)
Freeway (1996)
That Thing You Do! (1996)
To Gillian on Her 37th Birthday (1996)
Looking for Richard (1996)
Murder, My Sweet (1944)
Days of Thunder (1990)
A Perfect Candidate (1996)
Two or Three Things I Know About Her (1966)
The Bloody Child (1996)
Braindead (1992)
Bad Taste (1987)
Diva (1981)
Night on Earth (1991)
Paris Was a Woman (1995)
Amityville: Dollhouse (1996)
April Fool's Day (1986)
The Believers (1987)
Nosferatu a Venezia (1986)
Jingle All the Way (1996)
The Garden of Finzi-Contini (Il Giardino dei Finzi-Contini) (1970)
My Fellow Americans (1996)
The Ice Storm (1997)
Michael (1996)
The Whole Wide World (1996)
Hearts and Minds (1996)
Fools Rush In (1997)
Touch (1997)
Vegas Vacation (1997)
Love Jones (1997)
Picture Perfect (1997)
Career Girls (1997)
She's So Lovely (1997)
Money Talks (1997)
Excess Baggage (1997)
That Darn Cat! (1997)
The Peacemaker (1997)
Soul Food (1997)
Money Talks (1997)
Washington Square (1997)
Telling Lies in America (1997)
Year of the Horse (1997)
Phantoms (1998)
A Life Less Ordinary (1997)
Eve's Bayou (1997)
One Night Stand (1997)
The Tango Lesson (1997)
Mortal Kombat: Annihilation (1997)
Bent (1997)
Flubber (1997)
For Richer or Poorer (1997)
Home Alone 3 (1997)
Scream 2 (1997)
The Sweet Hereafter (1997)
Time Tracers (1995)
The Postman (1997)
The Winter Guest (1997)
Kundun (1997)
Mr. Magoo (1997)
The Big Lebowski (1998)
Afterglow (1997)
Ma vie en rose (My Life in Pink) (1997)
Great Expectations (1998)
Oscar & Lucinda (1997)
Vermin (1998)
Half Baked (1998)
Dangerous Beauty (1998)
Nil By Mouth (1997)
Twilight (1998)
U.S. Marshalls (1998)
Love and Death on Long Island (1997)
Wild Things (1998)
Primary Colors (1998)
Lost in Space (1998)
Mercury Rising (1998)
City of Angels (1998)
The City of Lost Children (1995)
Two Bits (1995)
Farewell My Concubine (1993)
Dead Man (1995)
Raise the Red Lantern (1991)
White Squall (1996)
Unforgettable (1996)
Down Periscope (1996)
The Flower of My Secret (La Flor de mi secreto) (1995)
The Craft (1996)
Harriet the Spy (1996)
Chain Reaction (1996)
The Island of Dr. Moreau (1996)
First Kid (1996)
The Funeral (1996)
The Preacher's Wife (1996)
Paradise Road (1997)
Brassed Off (1996)
A Thousand Acres (1997)
A Smile Like Yours (1997)
Murder in the First (1995)
Airheads (1994)
With Honors (1994)
What's Love Got to Do with It (1993)
Killing Zoe (1994)
Renaissance Man (1994)
Charade (1963)
The Fox and the Hound (1981)
The Big Blue (Le Grand bleu) (1988)
Booty Call (1997)
How to Make an American Quilt (1995)
Georgia (1995)
The Indian in the Cupboard (1995)
Blue in the Face (1995)
Unstrung Heroes (1995)
Unzipped (1995)
Before Sunrise (1995)
Nobody's Fool (1994)
Pushing Hands (1992)
To Live (Huozhe) (1994)
Dazed and Confused (1993)
Naked (1993)
Orlando (1993)
Ruby in Paradise (1993)
Some Folks Call It a Sling Blade (1993)
A Month by the Lake (1995)
Funny Face (1957)
An Affair to Remember (1957)
Little Lord Fauntleroy (1936)
The Inspector General (1949)
Winnie the Pooh and the Blustery Day (1968)
Hear My Song (1991)
Mediterraneo (1991)
Passion Fish (1992)
Grateful Dead (1995)
Eye for an Eye (1996)
Fear (1996)
Solo (1996)
The Substitute (1996)
Heaven's Prisoners (1996)
The Trigger Effect (1996)
Mother Night (1996)
Dangerous Ground (1997)
Maximum Risk (1996)
The Rich Man's Wife (1996)
Shadow Conspiracy (1997)
Blood & Wine (1997)
Turbulence (1997)
Underworld (1997)
The Beautician and the Beast (1997)
Cats Don't Dance (1997)
Anna Karenina (1997)
Keys to Tulsa (1997)
Head Above Water (1996)
Hercules (1997)
The Last Time I Committed Suicide (1997)
Kiss Me, Guido (1997)
The Big Green (1995)
Stuart Saves His Family (1995)
Cabin Boy (1994)
Clean Slate (1994)
Lightning Jack (1994)
The Stupids (1996)
The Pest (1997)
That Darn Cat! (1997)
Geronimo: An American Legend (1993)
La Double vie de Véronique (The Double Life of Veronique) (1991)
Until the End of the World (Bis ans Ende der Welt) (1991)
Waiting for Guffman (1996)
I Shot Andy Warhol (1996)
Stealing Beauty (1996)
Basquiat (1996)
2 Days in the Valley (1996)
Private Parts (1997)
Anaconda (1997)
Romy and Michele's High School Reunion (1997)
Shiloh (1997)
Con Air (1997)
Trees Lounge (1996)
Tie Me Up! Tie Me Down! (1990)
Die xue shuang xiong (The Killer) (1989)
Gaslight (1944)
8 1/2 (1963)
Fast, Cheap & Out of Control (1997)
Fathers' Day (1997)
Mrs. Dalloway (1997)
Fire Down Below (1997)
The Lay of the Land (1997)
The Shooter (1995)
Grumpier Old Men (1995)
Jury Duty (1995)
The Beverly Hillbillies (1993)
Lassie (1994)
Little Big League (1994)
Homeward Bound II: Lost in San Francisco (1996)
The Quest (1996)
Cool Runnings (1993)
Drop Dead Fred (1991)
Grease 2 (1982)
Switchback (1997)
Hamlet (1996)
Two if by Sea (1996)
Forget Paris (1995)
Just Cause (1995)
Rent-a-Kid (1995)
The Paper (1994)
Fearless (1993)
Malice (1993)
Multiplicity (1996)
She's the One (1996)
House Arrest (1996)
The Ghost and Mrs. Muir (1947)
The Associate (1996)
Dracula: Dead and Loving It (1995)
Now and Then (1995)
Mr. Wrong (1996)
A Simple Twist of Fate (1994)
Cronos (1992)
The Pallbearer (1996)
The War (1994)
Don't Be a Menace to South Central While Drinking Your Juice in the Hood (1996)
The Adventures of Pinocchio (1996)
The Evening Star (1996)
Four Days in September (1997)
A Little Princess (1995)
Crossfire (1947)
Koyaanisqatsi (1983)
Balto (1995)
Bottle Rocket (1996)
The Star Maker (L'Uomo delle stelle) (1995)
Amateur (1994)
Living in Oblivion (1995)
Party Girl (1995)
A Pyromaniac's Love Story (1995)
Shallow Grave (1994)
Reality Bites (1994)
A Man of No Importance (1994)
The Pagemaster (1994)
Love and a .45 (1994)
Oliver & Company (1988)
Joe's Apartment (1996)
Celestial Clockwork (1994)
Curdled (1996)
Female Perversions (1996)
Albino Alligator (1996)
Anne Frank Remembered (1995)
Carried Away (1996)
It's My Party (1995)
Bloodsport 2 (1995)
Double Team (1997)
Speed 2: Cruise Control (1997)
Sliver (1993)
Pete's Dragon (1977)
Dear God (1996)
Live Nude Girls (1995)
A Thin Line Between Love and Hate (1996)
High School High (1996)
Commandments (1997)
Hate (La Haine) (1995)
Flirting With Disaster (1996)
Red Firecracker, Green Firecracker (1994)
What Happened Was... (1994)
Six Degrees of Separation (1993)
Two Much (1996)
Trust (1990)
C'est arrivé près de chez vous (1992)
Firestorm (1998)
The Newton Boys (1998)
Beyond Rangoon (1995)
Feast of July (1995)
Death and the Maiden (1994)
Tank Girl (1995)
Double Happiness (1994)
Cobb (1994)
Mrs. Parker and the Vicious Circle (1994)
Faithful (1996)
Twelfth Night (1996)
The Mark of Zorro (1940)
Surviving Picasso (1996)
Up in Smoke (1978)
Some Kind of Wonderful (1987)
I'm Not Rappaport (1996)
The Umbrellas of Cherbourg (Les Parapluies de Cherbourg) (1964)
They Made Me a Criminal (1939)
The Last Time I Saw Paris (1954)
A Farewell to Arms (1932)
The Innocents (1961)
The Old Man and the Sea (1958)
The Truman Show (1998)
Heidi Fleiss: Hollywood Madam (1995)
Chungking Express (1994)
Jupiter's Wife (1994)
Safe (1995)
Feeling Minnesota (1996)
Escape to Witch Mountain (1975)
Get on the Bus (1996)
The Doors (1991)
Ghosts of Mississippi (1996)
Beautiful Thing (1996)
Best Men (1997)
Hackers (1995)
The Road to Wellville (1994)
The War Room (1993)
When We Were Kings (1996)
Hard Eight (1996)
The Quiet Room (1996)
Blue Chips (1994)
Calendar Girl (1993)
My Family (1995)
Tom & Viv (1994)
Walkabout (1971)
Last Dance (1996)
Original Gangstas (1996)
In Love and War (1996)
Backbeat (1993)
Alphaville (1965)
Rendezvous in Paris (Les Rendez-vous de Paris) (1995)
Cyclo (1995)
The Relic (1997)
La Fille seule (A Single Girl) (1995)
Stalker (1979)
Love! Valour! Compassion! (1997)
Palookaville (1996)
Phat Beach (1996)
The Portrait of a Lady (1996)
Zeus and Roxanne (1997)
Big Bully (1996)
Love & Human Remains (1993)
The Sum of Us (1994)
Little Buddha (1993)
Fresh (1994)
Spanking the Monkey (1994)
Wild Reeds (1994)
The Women (1939)
Bliss (1997)
Caught (1996)
Hugo Pool (1997)
Welcome To Sarajevo (1997)
Dunston Checks In (1996)
Major Payne (1994)
Man of the House (1995)
I Love Trouble (1994)
A Low Down Dirty Shame (1994)
Cops and Robbersons (1994)
The Cowboy Way (1994)
The Endless Summer 2 (1994)
In the Army Now (1994)
The Inkwell (1994)
Switchblade Sisters (1975)
Young Guns II (1990)
Prefontaine (1997)
That Old Feeling (1997)
A Letter From Death Row (1998)
The Boys of St. Vincent (1993)
Before the Rain (Pred dozhdot) (1994)
Once Were Warriors (1994)
Strawberry and Chocolate (Fresa y chocolate) (1993)
Savage Nights (Les Nuits fauves) (1992)
A Family Thing (1996)
Purple Noon (1960)
Cemetery Man (Dellamorte Dellamore) (1994)
Kim (1950)
Marlene Dietrich: Shadow and Light (1996)
Maybe, Maybe Not (Der, Bewegte Mann) (1994)
Top Hat (1935)
To Be or Not to Be (1942)
The Secret Agent (1996)
Amos & Andrew (1993)
Jade (1995)
Kiss of Death (1995)
Mixed Nuts (1994)
Virtuosity (1995)
Blue Sky (1994)
Flesh and Bone (1993)
Guilty as Sin (1993)
In the Realm of the Senses (Ai no corrida) (1976)
Barb Wire (1996)
Kissed (1996)
Assassins (1995)
Friday (1995)
A Goofy Movie (1995)
Higher Learning (1995)
When a Man Loves a Woman (1994)
Judgment Night (1993)
King of the Hill (1993)
The Scout (1994)
Angus (1995)
Night Falls on Manhattan (1997)
An Awfully Big Adventure (1995)
Under Siege 2: Dark Territory (1995)
Poison Ivy II (1995)
Ready to Wear (Pret-A-Porter) (1994)
Marked for Death (1990)
Madonna: Truth or Dare (1991)
Nénette et Boni (1996)
Chairman of the Board (1998)
The Big Bang Theory (1994)
Other Voices, Other Rooms (1997)
Twisted (1996)
Full Speed (1996)
Cutthroat Island (1995)
Ghost in the Shell (Kokaku kidotai) (1995)
The Van (1996)
The Old Lady Who Walked in the Sea (La Vieille qui marchait dans la mer) (1991)
Night Flier (1997)
Metro (1997)
Gridlock'd (1997)
Bushwhacked (1995)
Bad Girls (1994)
Blink (1994)
For Love or Money (1993)
Best of the Best 3: No Turning Back (1995)
A Chef in Love (1996)
Contempt (Le Mépris) (1963)
The Tie That Binds (1995)
Gone Fishin' (1997)
Broken English (1996)
The Designated Mourner (1997)
The Designated Mourner (1997)
Trial and Error (1997)
Pie in the Sky (1995)
Total Eclipse (1995)
The Run of the Country (1995)
Walking and Talking (1996)
Foxfire (1996)
Nothing to Lose (1994)
Star Maps (1997)
Bread and Chocolate (Pane e cioccolata) (1973)
Clockers (1995)
Bitter Moon (1992)
Love in the Afternoon (1957)
Life with Mikey (1993)
North (1994)
Talking About Sex (1994)
Color of Night (1994)
Robocop 3 (1993)
Killer (Bulletproof Heart) (1994)
Sunset Park (1996)
Set It Off (1996)
Selena (1997)
Wild America (1997)
Gang Related (1997)
Manny & Lo (1996)
The Grass Harp (1995)
Out to Sea (1997)
Before and After (1996)
Princess Caraboo (1994)
Shall We Dance? (1937)
Ed (1996)
Denise Calls Up (1995)
Jack and Sarah (1995)
Country Life (1994)
Celtic Pride (1996)
A Simple Wish (1997)
Star Kid (1997)
Ayn Rand: A Sense of Life (1997)
Kicked in the Head (1997)
Indian Summer (1996)
Love Affair (1994)
The Band Wagon (1953)
Penny Serenade (1941)
'Til There Was You (1997)
Stripes (1981)
Late Bloomers (1996)
The Getaway (1994)
New York Cop (1996)
National Lampoon's Senior Trip (1995)
Delta of Venus (1994)
Carmen Miranda: Bananas Is My Business (1994)
Babyfever (1994)
A Very Natural Thing (1974)
A Walk in the Sun (1945)
Waiting to Exhale (1995)
The Pompatus of Love (1996)
Palmetto (1998)
Surviving the Game (1994)
Inventing the Abbotts (1997)
The Horse Whisperer (1998)
The Journey of August King (1995)
Catwalk (1995)
The Neon Bible (1995)
Homage (1995)
Open Season (1996)
Metisse (Café au Lait) (1993)
The Wooden Man's Bride (Wu Kui) (1994)
Loaded (1994)
August (1996)
Boys (1996)
Captives (1994)
Of Love and Shadows (1994)
The Low Life (1994)
An Unforgettable Summer (1994)
The Last Klezmer: Leopold Kozlowski, His Life and Music (1995)
My Life and Times With Antonin Artaud (En compagnie d'Antonin Artaud) (1993)
Midnight Dancers (Sibak) (1994)
Somebody to Love (1994)
American Buffalo (1996)
Kazaam (1996)
Larger Than Life (1996)
Two Deaths (1995)
Stefano Quantestorie (1993)
The Crude Oasis (1995)
Hedd Wyn (1992)
The Convent (O Convento) (1995)
Lotto Land (1995)
The Story of Xinghua (1993)
The Day the Sun Turned Cold (Tianguo niezi) (1994)
Dingo (1992)
The Ballad of Narayama (Narayama Bushiko) (1958)
Every Other Weekend (1990)
Mille bolle blu (1993)
Crows and Sparrows (1949)
Lover's Knot (1996)
Shadow of Angels (Schatten der Engel) (1976)
1-900 (1994)
Venice/Venice (1992)
Infinity (1996)
Ed's Next Move (1996)
For the Moment (1994)
The Deadly Cure (1996)
Boys in Venice (1996)
The Sexual Life of the Belgians (1994)
The Search for One-eye Jimmy (1996)
American Strays (1996)
The Leopard Son (1996)
Bird of Prey (1996)
Johnny 100 Pesos (1993)
JLG/JLG - autoportrait de décembre (1994)
Faust (1994)
Mina Tannenbaum (1994)
The Forbidden Christ (Il Cristo proibito) (1950)
I Can't Sleep (J'ai pas sommeil) (1994)
The Machine (1994)
The Stranger (1994)
Good Morning (1971)
Falling in Love Again (1980)
The Cement Garden (1993)
Meet Wally Sparks (1997)
Hotel de Love (1996)
Rhyme & Reason (1997)
Love and Other Catastrophes (1996)
Hollow Reed (1996)
Losing Chase (1996)
Le Bonheur (1965)
The Second Jungle Book: Mowgli & Baloo (1997)
Squeeze (1996)
Roseanna's Grave (For Roseanna) (1997)
Tetsuo II: Body Hammer (1992)
Fall (1997)
Gabbeh (1996)
Mondo (1996)
The Innocent Sleep (1995)
For Ever Mozart (1996)
The Locusts (1997)
Stag (1997)
Swept from the Sea (1997)
Hurricane Streets (1998)
Stonewall (1995)
Of Human Bondage (1934)
Anna (1996)
Stranger in the House (1997)
Picture Bride (1995)
M. Butterfly (1993)
Ciao, Professore! (1993)
Caro Diario (Dear Diary) (1994)
Withnail and I (1987)
Boy's Life 2 (1997)
When Night Is Falling (1995)
The Specialist (1994)
Gordy (1995)
The Swan Princess (1994)
Harlem (1993)
Barbarella (1968)
Land Before Time III: The Time of the Great Giving (1995) (V)
Street Fighter (1994)
Coldblooded (1995)
The Next Karate Kid (1994)
No Escape (1994)
The Turning (1992)
The Joy Luck Club (1993)
Highlander III: The Sorcerer (1994)
Gilligan's Island: The Movie (1998)
My Crazy Life (Mi vida loca) (1993)
Suture (1993)
The Walking Dead (1995)
I Like It Like That (1994)
I'll Do Anything (1994)
Grace of My Heart (1996)
Drunks (1995)
SubUrbia (1997)
Sliding Doors (1998)
Ill Gotten Gains (1997)
Legal Deceit (1997)
The Mighty (1998)
Men of Means (1998)
Shooting Fish (1997)
Steal Big, Steal Little (1995)
Mr. Jones (1993)
House Party 3 (1994)
Panther (1995)
Jason's Lyric (1994)
Above the Rim (1994)
Moonlight and Valentino (1995)
The Scarlet Letter (1995)
8 Seconds (1994)
That Darn Cat! (1965)
Ladybird Ladybird (1994)
Bye Bye, Love (1995)
Century (1993)
My Favorite Season (1993)
Pather Panchali (1955)
Golden Earrings (1947)
Foreign Correspondent (1940)
Lady of Burlesque (1943)
Angel on My Shoulder (1946)
Angel and the Badman (1947)
The Outlaw (1943)
Beat the Devil (1954)
Love Is All There Is (1996)
A Damsel in Distress (1937)
Madame Butterfly (1995)
Sleepover (1995)
Here Comes Cookie (1935)
Thieves (Les Voleurs) (1996)
Les Boys (1997)
The Stars Fell on Henrietta (1995)
Last Summer in the Hamptons (1995)
Margaret's Museum (1995)
The Saint of Fort Washington (1993)
The Cure (1995)
Tom and Huck (1995)
Gumby: The Movie (1995)
Hideaway (1995)
The Visitors (Les Visiteurs) (1993)
The Little Princess (1939)
Nina Takes a Lover (1994)
Bhaji on the Beach (1993)
Raw Deal (1948)
Nightwatch (1997)
Dead Presidents (1995)
Reckless (1995)
Herbie Rides Again (1974)
S.F.W. (1994)
The Gate of Heavenly Peace (1995)
The Man in the Iron Mask (1998)
The Jerky Boys (1994)
Le Colonel Chabert (1994)
Girl in the Cadillac (1995)
Even Cowgirls Get the Blues (1993)
Germinal (1993)
Chasers (1994)
Fausto (1993)
Tough and Deadly (1995)
Window to Paris (1994)
A Modern Affair (1995)
Il Mostro (1994)
Flirt (1995)
Carpool (1996)
The Line King: Al Hirschfeld (1996)
Farmer & Chase (1995)
Grosse Fatigue (1994)
Santa with Muscles (1996)
Prisoner of the Mountains (Kavkazsky Plennik) (1996)
Naked in New York (1994)
Gold Diggers: The Secret of Bear Mountain (1995)
Der Bewegte Mann (1994)
Killer: A Journal of Murder (1995)
Nelly & Monsieur Arnaud (1995)
Three Lives and Only One Death (1996)
The Babysitter (1995)
Getting Even with Dad (1994)
Mad Dog Time (1996)
Children of the Revolution (1996)
The World of Apu (Apur Sansar) (1959)
Sprung (1997)
Dream With the Fishes (1997)
Wings of Courage (1995)
The Wedding Gift (1994)
Race the Sun (1996)
Losing Isaiah (1995)
New Jersey Drive (1995)
The Fear (1995)
Mr. Wonderful (1993)
Trial by Jury (1994)
A Good Man in Africa (1994)
Kaspar Hauser (1993)
The Object of My Affection (1998)
Witness (1985)
Senseless (1998)
Nowhere (1997)
Underground (1995)
Jefferson in Paris (1995)
Far From Home: The Adventures of Yellow Dog (1995)
Foreign Student (1994)
I Don't Want to Talk About It (De eso no se habla) (1993)
Twin Town (1997)
L'Enfer (1994)
Aiqing wansui (1994)
Cosi (1996)
All Over Me (1997)
Being Human (1993)
The Amazing Panda Adventure (1995)
The Beans of Egypt, Maine (1994)
The Scarlet Letter (1926)
Johns (1996)
It Takes Two (1995)
Frankie Starlight (1995)
Shadows (Cienie) (1988)
The Show (1995)
The Courtyard (1995)
Dream Man (1995)
Destiny Turns on the Radio (1995)
The Glass Shield (1994)
The Hunted (1995)
The Underneath (1995)
Safe Passage (1994)
The Secret Adventures of Tom Thumb (1993)
Condition Red (1995)
Yankee Zulu (1994)
Aparajito (1956)
Hostile Intentions (1994)
Clean Slate (Coup de Torchon) (1981)
Tigrero: A Film That Was Never Made (1994)
The Eye of Vichy (L'Oeil de Vichy) (1993)
The Promise (Das Versprechen) (1994)
To Cross the Rubicon (1991)
Daens (1992)
The Man from Down Under (1943)
Careful (1992)
Vermont Is For Lovers (1992)
La Vie est belle (Life is Rosy) (1987)
Quartier Mozart (1992)
Touki Bouki (Journey of the Hyena) (1973)
Wend Kuuni (God's Gift) (1982)
Spirits of the Dead (Tre passi nel delirio) (1968)
Pharaoh's Army (1995)
I, Worst of All (Yo, la peor de todas) (1990)
A Hungarian Fairy Tale (1987)
Death in the Garden (La Mort en ce jardin) (1956)
La Collectionneuse (1967)
Baton Rouge (1988)
Liebelei (1933)
The Woman in Question (1950)
T-Men (1947)
The Invitation (Zaproszenie) (1986)
La Symphonie pastorale (1946)
American Dream (1990)
Lashou shentan (1992)
Terror in a Texas Town (1958)
Salut cousin! (1996)
Schizopolis (1996)
To Have, or Not (1995)
Duoluo tianshi (1995)
The Magic Hour (1998)
Death in Brunswick (1991)
Everest (1998)
Shopping (1994)
Nemesis 2: Nebula (1995)
Romper Stomper (1992)
City of Industry (1997)
Someone Else's America (1995)
Guantanamera (1994)
Office Killer (1997)
A Price Above Rubies (1998)
Angela (1995)
He Walked by Night (1948)
Love Serenade (1996)
Deceiver (1997)
Hurricane Streets (1998)
Buddy (1997)
B*A*P*S (1997)
Truth or Consequences, N.M. (1997)
Intimate Relations (1996)
The Leading Man (1996)
Tokyo Fist (1995)
The Reluctant Debutante (1958)
Warriors of Virtue (1997)
Desert Winds (1995)
Hugo Pool (1997)
King of New York (1990)
All Things Fair (1996)
The Sixth Man (1997)
Butterfly Kiss (1995)
Paris, France (1993)
La Cérémonie (1995)
Hush (1998)
Nightwatch (1997)
Nobody Loves Me (Keiner liebt mich) (1994)
The Wife (1995)
Lamerica (1994)
Nico Icon (1995)
The Silence of the Palace (Saimt el Qusur) (1994)
The Slingshot (1993)
Land and Freedom (Tierra y libertad) (1995)
Á köldum klaka (Cold Fever) (1994)
Etz Hadomim Tafus (Under the Domin Tree) (1994)
Two Friends (1986)
Brothers in Trouble (1995)
Girls Town (1996)
Normal Life (1996)
Bitter Sugar (Azucar Amargo) (1996)
The Eighth Day (1996)
Dadetown (1995)
Some Mother's Son (1996)
Angel Baby (1995)
Sudden Manhattan (1996)
The Butcher Boy (1998)
Men With Guns (1997)
Hana-bi (1997)
Niagara, Niagara (1997)
The Big One (1997)
The Butcher Boy (1998)
The Spanish Prisoner (1997)
Temptress Moon (Feng Yue) (1996)
Entertaining Angels: The Dorothy Day Story (1996)
Chairman of the Board (1998)
The Favor (1994)
Little City (1998)
Target (1995)
The Substance of Fire (1996)
Getting Away With Murder (1996)
Small Faces (1995)
The New Age (1994)
Rough Magic (1995)
Nothing Personal (1995)
8 Heads in a Duffel Bag (1997)
A Brother's Kiss (1997)
Ripe (1996)
The Next Step (1995)
Wedding Bell Blues (1996)
MURDER and murder (1996)
Tainted (1998)
A Further Gesture (1996)
Kika (1993)
Mirage (1995)
Mamma Roma (1962)
The Sunchaser (1996)
The War at Home (1996)
Sweet Nothing (1995)
Mat' i syn (1997)
B. Monkey (1998)
Sliding Doors (1998)
You So Crazy (1994)
Scream of Stone (Schrei aus Stein) (1991)
